<?xml version="1.0" encoding="UTF-8"?>
<svg width="14px" height="14px" viewBox="0 0 14 14" version="1.1" xmlns="http://www.w3.org/2000/svg" xmlns:xlink="http://www.w3.org/1999/xlink">
    <!-- Generator: Sketch 50.2 (55047) - http://www.bohemiancoding.com/sketch -->
    <title>Shape</title>
    <desc>Created with Sketch.</desc>
    <defs></defs>
    <g id="Page-1" stroke="none" stroke-width="1" fill="none" fill-rule="evenodd">
        <g id="speech-bubbleX-Copy" transform="translate(-10.000000, -6.000000)" fill="#000000" fill-rule="nonzero">
            <polygon id="Shape" points="11.2842234 20 17 14.2842234 22.7157766 20 24 18.7157766 18.2842234 13 24 7.28422343 22.7157766 6 17 11.7157766 11.2842234 6 10 7.28422343 15.7157766 13 10 18.7157766"></polygon>
        </g>
    </g>
</svg>